\relax 
\providecommand\hyper@newdestlabel[2]{}
\providecommand*{\memsetcounter}[2]{}
\abx@aux@sortscheme{ynt}
\abx@aux@sortnamekeyscheme{global}
\providecommand\HyperFirstAtBeginDocument{\AtBeginDocument}
\HyperFirstAtBeginDocument{\ifx\hyper@anchor\@undefined
\global\let\oldcontentsline\contentsline
\gdef\contentsline#1#2#3#4{\oldcontentsline{#1}{#2}{#3}}
\global\let\oldnewlabel\newlabel
\gdef\newlabel#1#2{\newlabelxx{#1}#2}
\gdef\newlabelxx#1#2#3#4#5#6{\oldnewlabel{#1}{{#2}{#3}}}
\AtEndDocument{\ifx\hyper@anchor\@undefined
\let\contentsline\oldcontentsline
\let\newlabel\oldnewlabel
\fi}
\fi}
\global\let\hyper@last\relax 
\gdef\HyperFirstAtBeginDocument#1{#1}
\providecommand\HyField@AuxAddToFields[1]{}
\providecommand\HyField@AuxAddToCoFields[2]{}
\@writefile{toc}{\boolfalse {citerequest}\boolfalse {citetracker}\boolfalse {pagetracker}\boolfalse {backtracker}\relax }
\@writefile{lof}{\boolfalse {citerequest}\boolfalse {citetracker}\boolfalse {pagetracker}\boolfalse {backtracker}\relax }
\@writefile{lot}{\boolfalse {citerequest}\boolfalse {citetracker}\boolfalse {pagetracker}\boolfalse {backtracker}\relax }
\@input{einfgrundnum/frontmatter.aux}
\@writefile{lof}{\defcounter {refsection}{0}\relax }\@writefile{lof}{\addvspace {10pt}}
\@writefile{lot}{\defcounter {refsection}{0}\relax }\@writefile{lot}{\addvspace {10pt}}
\@writefile{toc}{\defcounter {refsection}{0}\relax }\@writefile{toc}{\contentsline {chapter}{\chapternumberline {1}Orthogonalisierungsverfahren}{1}{chapter.1}}
\@@wrindexm@m{EinfGrundNum_WS18}{Orthogonalzerlegung|hyperpage}{1}
\@writefile{toc}{\defcounter {refsection}{0}\relax }\@writefile{toc}{\contentsline {section}{\numberline {1.1}Eigenschaften orthogonaler Matrizen}{1}{section.1.1}}
\newlabel{1:iso}{{\M@TitleReference {1.1.1}{Eigenschaften orthogonaler Matrizen}}{1}{}{thm.1.1.1}{}}
\newlabel{1:iso@cref}{{[lem][1][1,1]1.1.1}{1}}
\@writefile{toc}{\defcounter {refsection}{0}\relax }\@writefile{toc}{\contentsline {section}{\numberline {1.2}Anwendung: Lineare Ausgleichsgeraden}{1}{section.1.2}}
\newlabel{1:opt}{{\M@TitleReference {{O}}{Anwendung: Lineare Ausgleichsgeraden}}{1}{Anwendung: Lineare Ausgleichsgeraden}{equation.1.1}{}}
\newlabel{1:opt@cref}{{[equation][2147483647][]{O}}{1}}
\@writefile{toc}{\defcounter {refsection}{0}\relax }\@writefile{toc}{\contentsline {subsubsection}{\noindent \unhbox \voidb@x \leaders \hrule height .7ex width 1ex depth -0.6ex\hfill \kern \z@ \nobreakspace  {}\unhbox \voidb@x \setbox \@tempboxa \hbox {\color@begingroup \kern \fboxsep {\leavevmode {\color  {red}End of Lecture 1}}\kern \fboxsep \endgraf \endgroup }\XC@frameb@x  \relax \nobreakspace  {}\unhbox \voidb@x \leaders \hrule height .7ex width 1ex depth -0.6ex\hfill \kern \z@ }{2}{section*.2}}
\newlabel{2:wei}{{\M@TitleReference {1.2.1}{\noindent \unhbox \voidb@x \leaders \hrule height .7ex width 1ex depth -0.6ex\hfill \kern \z@ \nobreakspace  {}\unhbox \voidb@x \setbox \@tempboxa \hbox {\color@begingroup \kern \fboxsep {\leavevmode {\color  {red}End of Lecture 1}}\kern \fboxsep \endgraf \endgroup }\XC@frameb@x  \relax \nobreakspace  {}\unhbox \voidb@x \leaders \hrule height .7ex width 1ex depth -0.6ex\hfill \kern \z@ }}{2}{}{thm.1.2.1}{}}
\newlabel{2:wei@cref}{{[thm][1][1,2]1.2.1}{2}}
\@@wrindexm@m{EinfGrundNum_WS18}{Extremstelle|hyperpage}{2}
\abx@aux@cite{schroer}
\newlabel{2:neq}{{\M@TitleReference {{NE}}{\noindent \unhbox \voidb@x \leaders \hrule height .7ex width 1ex depth -0.6ex\hfill \kern \z@ \nobreakspace  {}\unhbox \voidb@x \setbox \@tempboxa \hbox {\color@begingroup \kern \fboxsep {\leavevmode {\color  {red}End of Lecture 1}}\kern \fboxsep \endgraf \endgroup }\XC@frameb@x  \relax \nobreakspace  {}\unhbox \voidb@x \leaders \hrule height .7ex width 1ex depth -0.6ex\hfill \kern \z@ }}{3}{\noindent \myrulefill ~\fbox {\textcolor {red}{End of Lecture \arabic {lecture}}}~\myrulefill }{equation.2.1}{}}
\newlabel{2:neq@cref}{{[equation][2147483647][]{NE}}{3}}
\@@wrindexm@m{EinfGrundNum_WS18}{Normalengleichung|hyperpage}{3}
\@writefile{tdo}{\defcounter {refsection}{0}\relax }\@writefile{tdo}{\contentsline {todo}{Wie ist die Kondition von $A$ im nicht-quadratischen Fall definiert?}{3}{section*.3}}
\pgfsyspdfmark {pgfid1}{20112834}{11640660}
\@@wrindexm@m{EinfGrundNum_WS18}{Orthogonalzerlegung!erweiterte|hyperpage}{3}
\@@wrindexm@m{EinfGrundNum_WS18}{obere Dreiecksmatrix!erweiterte|hyperpage}{4}
\@writefile{toc}{\defcounter {refsection}{0}\relax }\@writefile{toc}{\contentsline {section}{\numberline {1.3}Gram-Schmidt-Verfahren}{4}{section.1.3}}
\newlabel{2:flag}{{\M@TitleReference {{$\ast $}}{Gram-Schmidt-Verfahren}}{4}{}{equation.2.1}{}}
\newlabel{2:flag@cref}{{[equation][2147483647][]{$\ast $}}{4}}
\abx@aux@cite{schroer }
\savepointas {col 1}{pgfid3}
\savepointas {col 2}{pgfid6}
\savepointas {col 3}{pgfid7}
\savepointas {col 4}{pgfid10}
\savepointas {col 5}{pgfid11}
\@writefile{toc}{\defcounter {refsection}{0}\relax }\@writefile{toc}{\contentsline {section}{\numberline {1.4}Householder-Transformationen}{5}{section.1.4}}
\@@wrindexm@m{EinfGrundNum_WS18}{Householder-Spiegelung|hyperpage}{5}
\newlabel{2:hprop}{{\M@TitleReference {1.4.1}{Householder-Transformationen}}{5}{}{thm.1.4.1}{}}
\newlabel{2:hprop@cref}{{[prop][1][1,4]1.4.1}{5}}
\@writefile{toc}{\defcounter {refsection}{0}\relax }\@writefile{toc}{\contentsline {subsubsection}{\noindent \unhbox \voidb@x \leaders \hrule height .7ex width 1ex depth -0.6ex\hfill \kern \z@ \nobreakspace  {}\unhbox \voidb@x \setbox \@tempboxa \hbox {\color@begingroup \kern \fboxsep {\leavevmode {\color  {red}End of Lecture 2}}\kern \fboxsep \endgraf \endgroup }\XC@frameb@x  \relax \nobreakspace  {}\unhbox \voidb@x \leaders \hrule height .7ex width 1ex depth -0.6ex\hfill \kern \z@ }{6}{section*.4}}
\pgfsyspdfmark {pgfid2}{10187200}{40135431}
\pgfsyspdfmark {pgfid3}{10950854}{36570275}
\pgfsyspdfmark {pgfid4}{18235383}{40135431}
\pgfsyspdfmark {pgfid5}{19448893}{39244142}
\pgfsyspdfmark {pgfid6}{18693863}{36570275}
\pgfsyspdfmark {pgfid7}{19654397}{36570275}
\pgfsyspdfmark {pgfid8}{25872558}{40135431}
\pgfsyspdfmark {pgfid9}{27086068}{39244142}
\pgfsyspdfmark {pgfid10}{26331038}{36570275}
\pgfsyspdfmark {pgfid11}{27185738}{36570275}
\newlabel{3:spieg}{{\M@TitleReference {1.4.2}{\noindent \unhbox \voidb@x \leaders \hrule height .7ex width 1ex depth -0.6ex\hfill \kern \z@ \nobreakspace  {}\unhbox \voidb@x \setbox \@tempboxa \hbox {\color@begingroup \kern \fboxsep {\leavevmode {\color  {red}End of Lecture 2}}\kern \fboxsep \endgraf \endgroup }\XC@frameb@x  \relax \nobreakspace  {}\unhbox \voidb@x \leaders \hrule height .7ex width 1ex depth -0.6ex\hfill \kern \z@ }}{6}{}{thm.1.4.2}{}}
\newlabel{3:spieg@cref}{{[lem][2][1,4]1.4.2}{6}}
\@writefile{tdo}{\defcounter {refsection}{0}\relax }\@writefile{tdo}{\contentsline {todo}{matrix $A^{(k)}$ hinzuf\IeC {\"u}gen.}{7}{section*.5}}
\pgfsyspdfmark {pgfid12}{20112834}{44914442}
\@writefile{tdo}{\defcounter {refsection}{0}\relax }\@writefile{tdo}{\contentsline {todo}{woher kommen die beiden Matrizen?}{7}{section*.6}}
\pgfsyspdfmark {pgfid13}{20112834}{35948075}
\newlabel{3:hh}{{\M@TitleReference {1.4.3}{\noindent \unhbox \voidb@x \leaders \hrule height .7ex width 1ex depth -0.6ex\hfill \kern \z@ \nobreakspace  {}\unhbox \voidb@x \setbox \@tempboxa \hbox {\color@begingroup \kern \fboxsep {\leavevmode {\color  {red}End of Lecture 2}}\kern \fboxsep \endgraf \endgroup }\XC@frameb@x  \relax \nobreakspace  {}\unhbox \voidb@x \leaders \hrule height .7ex width 1ex depth -0.6ex\hfill \kern \z@ }}{7}{Existenz einer $QR$-Zerlegung\index {Orthogonalzerlegung!Existenz}}{thm.1.4.3}{}}
\newlabel{3:hh@cref}{{[thm][3][1,4]1.4.3}{7}}
\@@wrindexm@m{EinfGrundNum_WS18}{Orthogonalzerlegung!Existenz|hyperpage}{7}
\@writefile{toc}{\defcounter {refsection}{0}\relax }\@writefile{toc}{\contentsline {subsubsection}{\noindent \unhbox \voidb@x \leaders \hrule height .7ex width 1ex depth -0.6ex\hfill \kern \z@ \nobreakspace  {}\unhbox \voidb@x \setbox \@tempboxa \hbox {\color@begingroup \kern \fboxsep {\leavevmode {\color  {red}End of Lecture 3}}\kern \fboxsep \endgraf \endgroup }\XC@frameb@x  \relax \nobreakspace  {}\unhbox \voidb@x \leaders \hrule height .7ex width 1ex depth -0.6ex\hfill \kern \z@ }{8}{section*.7}}
\@writefile{toc}{\defcounter {refsection}{0}\relax }\@writefile{toc}{\contentsline {section}{\numberline {1.5}Singul\IeC {\"a}rwertzerlegung}{8}{section.1.5}}
\@@wrindexm@m{EinfGrundNum_WS18}{Singul\IeC {\"a}rwerte|hyperpage}{8}
\@@wrindexm@m{EinfGrundNum_WS18}{Singul\IeC {\"a}rwertzerlegung|hyperpage}{8}
\@writefile{toc}{\defcounter {refsection}{0}\relax }\@writefile{toc}{\contentsline {subsection}{\numberline {1.5.1}Anwendung bei linearen Ausgleichsproblemen}{8}{subsection.1.5.1}}
\@writefile{toc}{\defcounter {refsection}{0}\relax }\@writefile{toc}{\contentsline {subsubsection}{\noindent \unhbox \voidb@x \leaders \hrule height .7ex width 1ex depth -0.6ex\hfill \kern \z@ \nobreakspace  {}\unhbox \voidb@x \setbox \@tempboxa \hbox {\color@begingroup \kern \fboxsep {\leavevmode {\color  {red}End of Lecture 4}}\kern \fboxsep \endgraf \endgroup }\XC@frameb@x  \relax \nobreakspace  {}\unhbox \voidb@x \leaders \hrule height .7ex width 1ex depth -0.6ex\hfill \kern \z@ }{8}{section*.8}}
\@@wrindexm@m{EinfGrundNum_WS18}{Moore-Penrose-Inverse|hyperpage}{8}
\@writefile{lof}{\defcounter {refsection}{0}\relax }\@writefile{lof}{\addvspace {10pt}}
\@writefile{lot}{\defcounter {refsection}{0}\relax }\@writefile{lot}{\addvspace {10pt}}
\@writefile{toc}{\defcounter {refsection}{0}\relax }\@writefile{toc}{\contentsline {chapter}{\chapternumberline {2}Gradienten- und CG-Verfahren}{9}{chapter.2}}
\@@wrindexm@m{EinfGrundNum_WS18}{reduzierte Minimierungsproblem|hyperpage}{9}
\@@wrindexm@m{EinfGrundNum_WS18}{Niveaumenge|hyperpage}{9}
\@writefile{toc}{\defcounter {refsection}{0}\relax }\@writefile{toc}{\contentsline {subsubsection}{\noindent \unhbox \voidb@x \leaders \hrule height .7ex width 1ex depth -0.6ex\hfill \kern \z@ \nobreakspace  {}\unhbox \voidb@x \setbox \@tempboxa \hbox {\color@begingroup \kern \fboxsep {\leavevmode {\color  {red}End of Lecture 5}}\kern \fboxsep \endgraf \endgroup }\XC@frameb@x  \relax \nobreakspace  {}\unhbox \voidb@x \leaders \hrule height .7ex width 1ex depth -0.6ex\hfill \kern \z@ }{9}{section*.9}}
\@writefile{toc}{\defcounter {refsection}{0}\relax }\@writefile{toc}{\contentsline {section}{\numberline {2.1}Abstiegsverfahren - Basics}{9}{section.2.1}}
\newlabel{6:smallsteps}{{\M@TitleReference {2.1.1}{Abstiegsverfahren - Basics}}{9}{}{thm.2.1.1}{}}
\newlabel{6:smallsteps@cref}{{[lem][1][2,1]2.1.1}{9}}
\@@wrindexm@m{EinfGrundNum_WS18}{Abstiegsrichtung|hyperpage}{9}
\newlabel{6:bounded}{{\M@TitleReference {2.1.3}{Abstiegsverfahren - Basics}}{10}{}{thm.2.1.3}{}}
\newlabel{6:bounded@cref}{{[rem][3][2,1]2.1.3}{10}}
\@@wrindexm@m{EinfGrundNum_WS18}{Antigradienten|hyperpage}{10}
\@writefile{toc}{\defcounter {refsection}{0}\relax }\@writefile{toc}{\contentsline {section}{\numberline {2.2}Konstruktion von Abstiegsverfahren}{10}{section.2.2}}
\@writefile{toc}{\defcounter {refsection}{0}\relax }\@writefile{toc}{\contentsline {subsection}{\numberline {2.2.1}effiziente Schrittweiten}{10}{subsection.2.2.1}}
\newlabel{6:quadexa}{{\M@TitleReference {2.2.1}{effiziente Schrittweiten}}{10}{}{thm.2.2.1}{}}
\newlabel{6:quadexa@cref}{{[bsp][1][2,2]2.2.1}{10}}
\newlabel{6:cond}{{\M@TitleReference {6.1}{effiziente Schrittweiten}}{10}{effiziente Schrittweiten}{equation.6.1}{}}
\newlabel{6:cond@cref}{{[equation][1][2]6.1}{10}}
\newlabel{6:precond}{{\M@TitleReference {6.2}{effiziente Schrittweiten}}{10}{effiziente Schrittweiten}{equation.6.2}{}}
\newlabel{6:precond@cref}{{[equation][2][2]6.2}{10}}
\newlabel{6:condA}{{\M@TitleReference {{A}}{effiziente Schrittweiten}}{10}{effiziente Schrittweiten}{equation.6.3}{}}
\newlabel{6:condA@cref}{{[equation][2147483647][]{A}}{10}}
\abx@aux@cite{alt2002nichtlineare}
\newlabel{6:condB}{{\M@TitleReference {{B}}{effiziente Schrittweiten}}{11}{effiziente Schrittweiten}{equation.6.3}{}}
\newlabel{6:condB@cref}{{[equation][2147483647][]{B}}{11}}
\newlabel{6:condC}{{\M@TitleReference {{C}}{effiziente Schrittweiten}}{11}{effiziente Schrittweiten}{equation.6.3}{}}
\newlabel{6:condC@cref}{{[equation][2147483647][]{C}}{11}}
\@@wrindexm@m{EinfGrundNum_WS18}{Prinzip des hinreichenden Abstieges|hyperpage}{11}
\@@wrindexm@m{EinfGrundNum_WS18}{Schrittweite!effiziente|hyperpage}{11}
\@writefile{toc}{\defcounter {refsection}{0}\relax }\@writefile{toc}{\contentsline {subsection}{\numberline {2.2.2}Gradientenbezogene Suchrichtungen}{11}{subsection.2.2.2}}
\@@wrindexm@m{EinfGrundNum_WS18}{gradientenbezogen|hyperpage}{11}
\@writefile{toc}{\defcounter {refsection}{0}\relax }\@writefile{toc}{\contentsline {section}{\numberline {2.3}Schrittweitenbestimmung}{12}{section.2.3}}
\@writefile{toc}{\defcounter {refsection}{0}\relax }\@writefile{toc}{\contentsline {subsection}{\numberline {2.3.1}exakte Schrittweiten}{12}{subsection.2.3.1}}
\@@wrindexm@m{EinfGrundNum_WS18}{Schrittweite!exakte|hyperpage}{12}
\@writefile{toc}{\defcounter {refsection}{0}\relax }\@writefile{toc}{\contentsline {subsubsection}{\noindent \unhbox \voidb@x \leaders \hrule height .7ex width 1ex depth -0.6ex\hfill \kern \z@ \nobreakspace  {}\unhbox \voidb@x \setbox \@tempboxa \hbox {\color@begingroup \kern \fboxsep {\leavevmode {\color  {red}End of Lecture 6}}\kern \fboxsep \endgraf \endgroup }\XC@frameb@x  \relax \nobreakspace  {}\unhbox \voidb@x \leaders \hrule height .7ex width 1ex depth -0.6ex\hfill \kern \z@ }{12}{section*.10}}
\newlabel{7:existence}{{\M@TitleReference {2.3.1}{\noindent \unhbox \voidb@x \leaders \hrule height .7ex width 1ex depth -0.6ex\hfill \kern \z@ \nobreakspace  {}\unhbox \voidb@x \setbox \@tempboxa \hbox {\color@begingroup \kern \fboxsep {\leavevmode {\color  {red}End of Lecture 6}}\kern \fboxsep \endgraf \endgroup }\XC@frameb@x  \relax \nobreakspace  {}\unhbox \voidb@x \leaders \hrule height .7ex width 1ex depth -0.6ex\hfill \kern \z@ }}{12}{}{thm.2.3.1}{}}
\newlabel{7:existence@cref}{{[lem][1][2,3]2.3.1}{12}}
\newlabel{7:exact1}{{\M@TitleReference {7.1}{\noindent \unhbox \voidb@x \leaders \hrule height .7ex width 1ex depth -0.6ex\hfill \kern \z@ \nobreakspace  {}\unhbox \voidb@x \setbox \@tempboxa \hbox {\color@begingroup \kern \fboxsep {\leavevmode {\color  {red}End of Lecture 6}}\kern \fboxsep \endgraf \endgroup }\XC@frameb@x  \relax \nobreakspace  {}\unhbox \voidb@x \leaders \hrule height .7ex width 1ex depth -0.6ex\hfill \kern \z@ }}{13}{exakte Schrittweite ist effizient}{equation.7.1}{}}
\newlabel{7:exact1@cref}{{[equation][1][2]7.1}{13}}
\newlabel{7:exact2}{{\M@TitleReference {7.2}{\noindent \unhbox \voidb@x \leaders \hrule height .7ex width 1ex depth -0.6ex\hfill \kern \z@ \nobreakspace  {}\unhbox \voidb@x \setbox \@tempboxa \hbox {\color@begingroup \kern \fboxsep {\leavevmode {\color  {red}End of Lecture 6}}\kern \fboxsep \endgraf \endgroup }\XC@frameb@x  \relax \nobreakspace  {}\unhbox \voidb@x \leaders \hrule height .7ex width 1ex depth -0.6ex\hfill \kern \z@ }}{13}{exakte Schrittweite ist effizient}{equation.7.2}{}}
\newlabel{7:exact2@cref}{{[equation][2][2]7.2}{13}}
\@writefile{toc}{\defcounter {refsection}{0}\relax }\@writefile{toc}{\contentsline {subsection}{\numberline {2.3.2}Armijo-Schrittregel}{13}{subsection.2.3.2}}
\@writefile{lof}{\defcounter {refsection}{0}\relax }\@writefile{lof}{\addvspace {10pt}}
\@writefile{lot}{\defcounter {refsection}{0}\relax }\@writefile{lot}{\addvspace {10pt}}
\@writefile{toc}{\defcounter {refsection}{0}\relax }\@writefile{toc}{\contentsline {appendix}{\chapternumberline {A}Insights from the exercise sheets}{15}{appendix.A}}
\@writefile{toc}{\defcounter {refsection}{0}\relax }\@writefile{toc}{\contentsline {section}{\numberline {A.0}Sheet 0}{15}{section.A.0}}
\@@wrindexm@m{EinfGrundNum_WS18}{Spektralradius|hyperpage}{15}
\newlabel{exe0:specr}{{\M@TitleReference {A.0.3}{Sheet 0}}{15}{}{thm.A.0.3}{}}
\newlabel{exe0:specr@cref}{{[prop][3][2147483647,1,0]A.0.3}{15}}
\@writefile{toc}{\defcounter {refsection}{0}\relax }\@writefile{toc}{\contentsline {section}{\numberline {A.1}Sheet 1}{15}{section.A.1}}
\memsetcounter{lastsheet}{20}
\memsetcounter{lastpage}{16}
